('/home/llb/project/API/study/python/daily_code/day_13/build/test/out00-PKG.pkg',
 {'BINARY': 1,
  'DATA': 1,
  'EXECUTABLE': 1,
  'EXTENSION': 1,
  'PYMODULE': 1,
  'PYSOURCE': 1,
  'PYZ': 0},
 [('out00-PYZ.pyz',
   '/home/llb/project/API/study/python/daily_code/day_13/build/test/out00-PYZ.pyz',
   'PYZ'),
  ('struct', '/usr/lib/python2.7/struct.pyc', 'PYMODULE'),
  ('pyimod01_os_path',
   '/home/llb/.local/lib/python2.7/site-packages/PyInstaller-3.3.1-py2.7.egg/PyInstaller/loader/pyimod01_os_path.pyc',
   'PYMODULE'),
  ('pyimod02_archive',
   '/home/llb/.local/lib/python2.7/site-packages/PyInstaller-3.3.1-py2.7.egg/PyInstaller/loader/pyimod02_archive.pyc',
   'PYMODULE'),
  ('pyimod03_importers',
   '/home/llb/.local/lib/python2.7/site-packages/PyInstaller-3.3.1-py2.7.egg/PyInstaller/loader/pyimod03_importers.pyc',
   'PYMODULE'),
  ('pyiboot01_bootstrap',
   '/home/llb/.local/lib/python2.7/site-packages/PyInstaller-3.3.1-py2.7.egg/PyInstaller/loader/pyiboot01_bootstrap.py',
   'PYSOURCE'),
  ('test',
   '/home/llb/project/API/study/python/daily_code/day_13/test.py',
   'PYSOURCE'),
  ('libz.so.1', '/lib/x86_64-linux-gnu/libz.so.1', 'BINARY'),
  ('_hashlib',
   '/usr/lib/python2.7/lib-dynload/_hashlib.x86_64-linux-gnu.so',
   'EXTENSION'),
  ('readline',
   '/usr/lib/python2.7/lib-dynload/readline.x86_64-linux-gnu.so',
   'EXTENSION'),
  ('resource',
   '/usr/lib/python2.7/lib-dynload/resource.x86_64-linux-gnu.so',
   'EXTENSION'),
  ('_multibytecodec',
   '/usr/lib/python2.7/lib-dynload/_multibytecodec.x86_64-linux-gnu.so',
   'EXTENSION'),
  ('_codecs_cn',
   '/usr/lib/python2.7/lib-dynload/_codecs_cn.x86_64-linux-gnu.so',
   'EXTENSION'),
  ('_codecs_jp',
   '/usr/lib/python2.7/lib-dynload/_codecs_jp.x86_64-linux-gnu.so',
   'EXTENSION'),
  ('_codecs_hk',
   '/usr/lib/python2.7/lib-dynload/_codecs_hk.x86_64-linux-gnu.so',
   'EXTENSION'),
  ('_codecs_tw',
   '/usr/lib/python2.7/lib-dynload/_codecs_tw.x86_64-linux-gnu.so',
   'EXTENSION'),
  ('_codecs_iso2022',
   '/usr/lib/python2.7/lib-dynload/_codecs_iso2022.x86_64-linux-gnu.so',
   'EXTENSION'),
  ('bz2',
   '/usr/lib/python2.7/lib-dynload/bz2.x86_64-linux-gnu.so',
   'EXTENSION'),
  ('_codecs_kr',
   '/usr/lib/python2.7/lib-dynload/_codecs_kr.x86_64-linux-gnu.so',
   'EXTENSION'),
  ('libcrypto.so.1.0.0',
   '/lib/x86_64-linux-gnu/libcrypto.so.1.0.0',
   'BINARY'),
  ('libreadline.so.6', '/lib/x86_64-linux-gnu/libreadline.so.6', 'BINARY'),
  ('libtinfo.so.5', '/lib/x86_64-linux-gnu/libtinfo.so.5', 'BINARY'),
  ('libbz2.so.1.0', '/lib/x86_64-linux-gnu/libbz2.so.1.0', 'BINARY'),
  ('libpython2.7.so.1.0',
   '/usr/lib/x86_64-linux-gnu/libpython2.7.so.1.0',
   'BINARY')],
 False,
 False,
 False)
